<?xml version="1.0" encoding="utf-8"?>
<!-- Generator: Adobe Illustrator 16.0.0, SVG Export Plug-In . SVG Version: 6.00 Build 0)  -->
<!DOCTYPE svg PUBLIC "-//W3C//DTD SVG 1.1//EN" "http://www.w3.org/Graphics/SVG/1.1/DTD/svg11.dtd">
<svg version="1.1" id="Layer_1" xmlns="http://www.w3.org/2000/svg" xmlns:xlink="http://www.w3.org/1999/xlink" x="0px" y="0px"
	 width="366.761px" height="227px" viewBox="72.62 142.5 366.761 227" enable-background="new 72.62 142.5 366.761 227"
	 xml:space="preserve">
<path fill="#CCCCCC" d="M401.862,150.334H110.14c-13.731,0-24.863,11.132-24.863,24.863v161.607
	c0,13.73,11.131,24.862,24.863,24.862h291.722c13.729,0,24.862-11.132,24.862-24.862V175.197
	C426.724,161.466,415.591,150.334,401.862,150.334z"/>
<rect x="85.277" y="174.585" width="341.447" height="43.576"/>
<rect x="107.239" y="230.186" fill="#FFFFFF" width="213.819" height="38.896"/>
<rect x="338.184" y="230.186" fill="#FFFFFF" width="66.853" height="38.896"/>
<text transform="matrix(1 0 0 1 351.595 256.395)" font-family="'ArialMT'" font-size="19.8901">789</text>
<text transform="matrix(1 0 0 1 255.2981 256.395)" font-family="'ArialMT'" font-size="19.8901">3456</text>
<g>
	<path fill="#FF0000" d="M411.768,222.645v53.25h-80.247v-53.25H411.768 M414.941,219.473h-86.592v59.593h86.592V219.473
		L414.941,219.473z"/>
</g>
<g>
	<path fill="#FF0000" d="M360.156,197.738h6.842v-30.051h8.199v30.051h6.842l-10.941,10.943L360.156,197.738z"/>
</g>
</svg>
